Project 1: Exploratory Data Analysis
…
## # A tibble: 2 x 2
##   Location `mean(avgweight, na.rm = T)`
##   <chr>                           <dbl>
## 1 Home                          123.662
## 2 School                        125.561

# select and arrange for average weight
joineddata %>% select(Month, Year, avgweight) %>% group_by(Month, 
    Year) %>% arrange(avgweight)

## # A tibble: 54 x 4
## # Groups:   Month, Year [14]
##     Week Month Year  avgweight
##    <dbl> <chr> <chr>     <dbl>
##  1     4 Jul   2020    120.025
##  2     1 Aug   2020    120.333
##  3     3 Aug   2020    120.5  
##  4     2 Aug   2020    120.6  
##  5     1 Jul   2020    121.333
##  6     2 Jul   2020    121.333
##  7     3 Jul   2020    121.4  
##  8     4 Jun   2020    121.52 
##  9     2 Sep   2020    122.4  
## 10     3 Sep   2020    123    
## # … with 44 more rows
…
